1 2 1
1 8 4
1 13 20
2 3 7
2 11 14
3 6 50
4 7 28
4 17 75
5 1 22
5 21 40
6 5 30
6 8 54
7 17 10
8 12 28
8 14 36
9 18 40
10 13 46
11 4 65
11 17 90
12 3 36
13 5 150
13 11 33
14 10 40
14 18 47
15 2 75
15 9 23
16 19 85
17 21 95
18 20 30
19 24 73
20 9 70
20 16 72
20 23 3
21 13 55
21 16 49
22 19 7
23 24 5
24 25 3
25 1 97
25 15 32
25 21 9